66.249.64.0 - - [29/May/2018:07:22:55 +0200] "GET /robots.txt HTTP/1.1" 404 823 dimitrisalaudmabileau.fr "-" "Mozilla/5.0 (compatible; Googlebot/2.1; +http://www.google.com/bot.html)" "-"
66.249.64.0 - - [29/May/2018:07:23:09 +0200] "GET / HTTP/1.1" 200 7141 dimitrisalaudmabileau.fr "-" "Mozilla/5.0 (Linux; Android 6.0.1; Nexus 5X Build/MMB29P) AppleWebKit/537.36 (KHTML, like Gecko) Chrome/41.0.2272.96 Mobile Safari/537.36 (compatible; Googlebot/2.1; +http://www.google.com/bot.html)" "-"
66.249.64.0 - - [29/May/2018:07:23:12 +0200] "GET /css/style.css HTTP/1.1" 200 8820 dimitrisalaudmabileau.fr "http://dimitrisalaudmabileau.fr/" "Mozilla/5.0 (Linux; Android 6.0.1; Nexus 5X Build/MMB29P) AppleWebKit/537.36 (KHTML, like Gecko) Chrome/41.0.2272.96 Mobile Safari/537.36 (compatible; Googlebot/2.1; +http://www.google.com/bot.html)" "-"
66.249.64.0 - - [29/May/2018:07:23:12 +0200] "GET /js/js.js HTTP/1.1" 200 3480 dimitrisalaudmabileau.fr "http://dimitrisalaudmabileau.fr/" "Mozilla/5.0 (compatible; Googlebot/2.1; +http://www.google.com/bot.html)" "-"
66.249.64.0 - - [29/May/2018:07:23:12 +0200] "GET /css/normalize.css HTTP/1.1" 200 8006 dimitrisalaudmabileau.fr "http://dimitrisalaudmabileau.fr/" "Mozilla/5.0 (compatible; Googlebot/2.1; +http://www.google.com/bot.html)" "-"
52.37.211.0 - - [29/May/2018:10:10:34 +0200] "GET / HTTP/1.1" 200 7141 dimitrisalaudmabileau.fr "-" "Magic Browser" "-"
52.37.211.0 - - [29/May/2018:10:10:35 +0200] "GET / HTTP/1.1" 200 7141 dimitrisalaudmabileau.fr "-" "Magic Browser" "-"
52.34.24.0 - - [29/May/2018:11:14:01 +0200] "GET / HTTP/1.1" 200 7141 dimitrisalaudmabileau.fr "-" "Magic Browser" "-"
52.34.24.0 - - [29/May/2018:11:14:02 +0200] "GET / HTTP/1.1" 200 7141 dimitrisalaudmabileau.fr "-" "Magic Browser" "-"
146.185.223.0 - - [29/May/2018:20:40:51 +0200] "GET / HTTP/1.1" 200 7141 dimitrisalaudmabileau.fr "-" "Mozilla/5.0 (Windows NT 10.0; Win64; x64) AppleWebKit/537.36 (KHTML, like Gecko) Chrome/63.0.3239.132 Safari/537.36" "-"
146.185.223.0 - - [29/May/2018:20:40:51 +0200] "GET /wp-includes/wlwmanifest.xml HTTP/1.1" 404 823 dimitrisalaudmabileau.fr "-" "Mozilla/5.0 (Windows NT 10.0; Win64; x64) AppleWebKit/537.36 (KHTML, like Gecko) Chrome/63.0.3239.132 Safari/537.36" "-"
146.185.223.0 - - [29/May/2018:20:40:51 +0200] "GET /xmlrpc.php?rsd HTTP/1.1" 404 823 dimitrisalaudmabileau.fr "-" "Mozilla/5.0 (Windows NT 10.0; Win64; x64) AppleWebKit/537.36 (KHTML, like Gecko) Chrome/63.0.3239.132 Safari/537.36" "-"
146.185.223.0 - - [29/May/2018:20:40:51 +0200] "GET / HTTP/1.1" 200 7141 dimitrisalaudmabileau.fr "-" "Mozilla/5.0 (Windows NT 10.0; Win64; x64) AppleWebKit/537.36 (KHTML, like Gecko) Chrome/63.0.3239.132 Safari/537.36" "-"
146.185.223.0 - - [29/May/2018:20:40:52 +0200] "GET /blog/wp-includes/wlwmanifest.xml HTTP/1.1" 404 823 dimitrisalaudmabileau.fr "-" "Mozilla/5.0 (Windows NT 10.0; Win64; x64) AppleWebKit/537.36 (KHTML, like Gecko) Chrome/63.0.3239.132 Safari/537.36" "-"
146.185.223.0 - - [29/May/2018:20:40:52 +0200] "GET /wordpress/wp-includes/wlwmanifest.xml HTTP/1.1" 404 823 dimitrisalaudmabileau.fr "-" "Mozilla/5.0 (Windows NT 10.0; Win64; x64) AppleWebKit/537.36 (KHTML, like Gecko) Chrome/63.0.3239.132 Safari/537.36" "-"
146.185.223.0 - - [29/May/2018:20:40:52 +0200] "GET /wp/wp-includes/wlwmanifest.xml HTTP/1.1" 404 823 dimitrisalaudmabileau.fr "-" "Mozilla/5.0 (Windows NT 10.0; Win64; x64) AppleWebKit/537.36 (KHTML, like Gecko) Chrome/63.0.3239.132 Safari/537.36" "-"
146.185.223.0 - - [29/May/2018:20:40:52 +0200] "GET /site/wp-includes/wlwmanifest.xml HTTP/1.1" 404 823 dimitrisalaudmabileau.fr "-" "Mozilla/5.0 (Windows NT 10.0; Win64; x64) AppleWebKit/537.36 (KHTML, like Gecko) Chrome/63.0.3239.132 Safari/537.36" "-"
146.185.223.0 - - [29/May/2018:20:40:52 +0200] "GET /cms/wp-includes/wlwmanifest.xml HTTP/1.1" 301 271 dimitrisalaudmabileau.fr "-" "Mozilla/5.0 (Windows NT 10.0; Win64; x64) AppleWebKit/537.36 (KHTML, like Gecko) Chrome/63.0.3239.132 Safari/537.36" "-"
107.21.1.0 - - [29/May/2018:23:27:30 +0200] "GET / HTTP/1.1" 200 7141 dimitrisalaudmabileau.fr "http://dimitrisalaudmabileau.fr/" "Mozilla/5.0 (compatible; DuckDuckGo-Favicons-Bot/1.0; +http://duckduckgo.com)" "-"
107.21.1.0 - - [29/May/2018:23:27:30 +0200] "GET /ledicon.png HTTP/1.1" 200 6055 dimitrisalaudmabileau.fr "http://dimitrisalaudmabileau.fr/ledicon.png" "Mozilla/5.0 (compatible; DuckDuckGo-Favicons-Bot/1.0; +http://duckduckgo.com)" "-"
31.35.165.0 - - [29/May/2018:23:27:54 +0200] "GET / HTTP/1.1" 200 7141 dimitrisalaudmabileau.fr "https://duckduckgo.com/" "Mozilla/5.0 (X11; Ubuntu; Linux x86_64; rv:60.0) Gecko/20100101 Firefox/60.0" "-"
31.35.165.0 - - [29/May/2018:23:27:55 +0200] "GET /css/style.css HTTP/1.1" 200 8820 dimitrisalaudmabileau.fr "http://dimitrisalaudmabileau.fr/" "Mozilla/5.0 (X11; Ubuntu; Linux x86_64; rv:60.0) Gecko/20100101 Firefox/60.0" "-"
31.35.165.0 - - [29/May/2018:23:27:55 +0200] "GET /js/js.js HTTP/1.1" 200 3480 dimitrisalaudmabileau.fr "http://dimitrisalaudmabileau.fr/" "Mozilla/5.0 (X11; Ubuntu; Linux x86_64; rv:60.0) Gecko/20100101 Firefox/60.0" "-"
31.35.165.0 - - [29/May/2018:23:27:55 +0200] "GET /css/normalize.css HTTP/1.1" 200 8006 dimitrisalaudmabileau.fr "http://dimitrisalaudmabileau.fr/css/style.css" "Mozilla/5.0 (X11; Ubuntu; Linux x86_64; rv:60.0) Gecko/20100101 Firefox/60.0" "-"
31.35.165.0 - - [29/May/2018:23:27:55 +0200] "GET /images/loader.gif HTTP/1.1" 200 135996 dimitrisalaudmabileau.fr "http://dimitrisalaudmabileau.fr/" "Mozilla/5.0 (X11; Ubuntu; Linux x86_64; rv:60.0) Gecko/20100101 Firefox/60.0" "-"
31.35.165.0 - - [29/May/2018:23:27:55 +0200] "GET /images/cvlogo.png HTTP/1.1" 200 3206 dimitrisalaudmabileau.fr "http://dimitrisalaudmabileau.fr/" "Mozilla/5.0 (X11; Ubuntu; Linux x86_64; rv:60.0) Gecko/20100101 Firefox/60.0" "-"
31.35.165.0 - - [29/May/2018:23:27:55 +0200] "GET /images/icolink.png HTTP/1.1" 200 1870 dimitrisalaudmabileau.fr "http://dimitrisalaudmabileau.fr/" "Mozilla/5.0 (X11; Ubuntu; Linux x86_64; rv:60.0) Gecko/20100101 Firefox/60.0" "-"
31.35.165.0 - - [29/May/2018:23:27:55 +0200] "GET /images/icotwitter.png HTTP/1.1" 200 3449 dimitrisalaudmabileau.fr "http://dimitrisalaudmabileau.fr/" "Mozilla/5.0 (X11; Ubuntu; Linux x86_64; rv:60.0) Gecko/20100101 Firefox/60.0" "-"
31.35.165.0 - - [29/May/2018:23:27:55 +0200] "GET /images/icoblocnote.png HTTP/1.1" 200 7688 dimitrisalaudmabileau.fr "http://dimitrisalaudmabileau.fr/" "Mozilla/5.0 (X11; Ubuntu; Linux x86_64; rv:60.0) Gecko/20100101 Firefox/60.0" "-"
31.35.165.0 - - [29/May/2018:23:27:55 +0200] "GET /images/icotrash.png HTTP/1.1" 200 2748 dimitrisalaudmabileau.fr "http://dimitrisalaudmabileau.fr/" "Mozilla/5.0 (X11; Ubuntu; Linux x86_64; rv:60.0) Gecko/20100101 Firefox/60.0" "-"
31.35.165.0 - - [29/May/2018:23:27:55 +0200] "GET /font/Tw%20Cen%20MT%20Condensed.ttf HTTP/1.1" 200 66804 dimitrisalaudmabileau.fr "http://dimitrisalaudmabileau.fr/css/style.css" "Mozilla/5.0 (X11; Ubuntu; Linux x86_64; rv:60.0) Gecko/20100101 Firefox/60.0" "-"
31.35.165.0 - - [29/May/2018:23:27:55 +0200] "GET /images/fondblocnote.png HTTP/1.1" 200 1040420 dimitrisalaudmabileau.fr "http://dimitrisalaudmabileau.fr/" "Mozilla/5.0 (X11; Ubuntu; Linux x86_64; rv:60.0) Gecko/20100101 Firefox/60.0" "-"
31.35.165.0 - - [29/May/2018:23:27:55 +0200] "GET /font/Brush%20Script%20MT.ttf HTTP/1.1" 200 45728 dimitrisalaudmabileau.fr "http://dimitrisalaudmabileau.fr/css/style.css" "Mozilla/5.0 (X11; Ubuntu; Linux x86_64; rv:60.0) Gecko/20100101 Firefox/60.0" "-"
31.35.165.0 - - [29/May/2018:23:27:55 +0200] "GET /images/fen.png HTTP/1.1" 200 6366 dimitrisalaudmabileau.fr "http://dimitrisalaudmabileau.fr/" "Mozilla/5.0 (X11; Ubuntu; Linux x86_64; rv:60.0) Gecko/20100101 Firefox/60.0" "-"
31.35.165.0 - - [29/May/2018:23:27:55 +0200] "GET /images/fenandroid.png HTTP/1.1" 404 823 dimitrisalaudmabileau.fr "http://dimitrisalaudmabileau.fr/" "Mozilla/5.0 (X11; Ubuntu; Linux x86_64; rv:60.0) Gecko/20100101 Firefox/60.0" "-"
31.35.165.0 - - [29/May/2018:23:27:55 +0200] "GET /images/logomail.jpg HTTP/1.1" 200 30090 dimitrisalaudmabileau.fr "http://dimitrisalaudmabileau.fr/" "Mozilla/5.0 (X11; Ubuntu; Linux x86_64; rv:60.0) Gecko/20100101 Firefox/60.0" "-"
31.35.165.0 - - [29/May/2018:23:27:55 +0200] "GET /images/logomaison.jpg HTTP/1.1" 200 15652 dimitrisalaudmabileau.fr "http://dimitrisalaudmabileau.fr/" "Mozilla/5.0 (X11; Ubuntu; Linux x86_64; rv:60.0) Gecko/20100101 Firefox/60.0" "-"
31.35.165.0 - - [29/May/2018:23:27:55 +0200] "GET /images/fenetrebar.png HTTP/1.1" 200 1023 dimitrisalaudmabileau.fr "http://dimitrisalaudmabileau.fr/" "Mozilla/5.0 (X11; Ubuntu; Linux x86_64; rv:60.0) Gecko/20100101 Firefox/60.0" "-"
31.35.165.0 - - [29/May/2018:23:27:56 +0200] "GET /images/b_fenetrebar.png HTTP/1.1" 200 1023 dimitrisalaudmabileau.fr "http://dimitrisalaudmabileau.fr/" "Mozilla/5.0 (X11; Ubuntu; Linux x86_64; rv:60.0) Gecko/20100101 Firefox/60.0" "-"
31.35.165.0 - - [29/May/2018:23:27:56 +0200] "GET /images/barre_t.png HTTP/1.1" 200 11086 dimitrisalaudmabileau.fr "http://dimitrisalaudmabileau.fr/" "Mozilla/5.0 (X11; Ubuntu; Linux x86_64; rv:60.0) Gecko/20100101 Firefox/60.0" "-"
31.35.165.0 - - [29/May/2018:23:27:56 +0200] "GET /images/fenetrebar_t.png HTTP/1.1" 200 1415 dimitrisalaudmabileau.fr "http://dimitrisalaudmabileau.fr/" "Mozilla/5.0 (X11; Ubuntu; Linux x86_64; rv:60.0) Gecko/20100101 Firefox/60.0" "-"
31.35.165.0 - - [29/May/2018:23:27:56 +0200] "GET /images/android/logoappli.png HTTP/1.1" 200 20230 dimitrisalaudmabileau.fr "http://dimitrisalaudmabileau.fr/" "Mozilla/5.0 (X11; Ubuntu; Linux x86_64; rv:60.0) Gecko/20100101 Firefox/60.0" "-"
31.35.165.0 - - [29/May/2018:23:27:56 +0200] "GET /images/logoimie.png HTTP/1.1" 200 25710 dimitrisalaudmabileau.fr "http://dimitrisalaudmabileau.fr/" "Mozilla/5.0 (X11; Ubuntu; Linux x86_64; rv:60.0) Gecko/20100101 Firefox/60.0" "-"
31.35.165.0 - - [29/May/2018:23:27:56 +0200] "GET /images/competence.png HTTP/1.1" 200 56220 dimitrisalaudmabileau.fr "http://dimitrisalaudmabileau.fr/" "Mozilla/5.0 (X11; Ubuntu; Linux x86_64; rv:60.0) Gecko/20100101 Firefox/60.0" "-"
31.35.165.0 - - [29/May/2018:23:27:56 +0200] "GET /images/fondciel.jpg.png HTTP/1.1" 200 845236 dimitrisalaudmabileau.fr "http://dimitrisalaudmabileau.fr/css/style.css" "Mozilla/5.0 (X11; Ubuntu; Linux x86_64; rv:60.0) Gecko/20100101 Firefox/60.0" "-"
31.35.165.0 - - [29/May/2018:23:27:56 +0200] "GET /images/bgdsm.png HTTP/1.1" 200 1817277 dimitrisalaudmabileau.fr "http://dimitrisalaudmabileau.fr/css/style.css" "Mozilla/5.0 (X11; Ubuntu; Linux x86_64; rv:60.0) Gecko/20100101 Firefox/60.0" "-"
31.35.165.0 - - [29/May/2018:23:27:57 +0200] "GET /ledicon.png HTTP/1.1" 200 6055 dimitrisalaudmabileau.fr "-" "Mozilla/5.0 (X11; Ubuntu; Linux x86_64; rv:60.0) Gecko/20100101 Firefox/60.0" "-"
212.227.221.0 - - [29/May/2018:23:47:53 +0200] "GET / HTTP/1.1" 200 7141 dimitrisalaudmabileau.fr "-" "Mozilla/5.0 (Macintosh; Intel Mac OS X 10_9_3) AppleWebKit/537.75.14 (KHTML, like Gecko) Version/7.0.3 Safari/7046A194A" "-"
212.227.221.0 - - [29/May/2018:23:47:53 +0200] "GET / HTTP/1.1" 200 7141 dimitrisalaudmabileau.fr "-" "Mozilla/5.0 (Macintosh; Intel Mac OS X 10_9_3) AppleWebKit/537.75.14 (KHTML, like Gecko) Version/7.0.3 Safari/7046A194A" "-"
212.227.221.0 - - [29/May/2018:23:47:53 +0200] "GET /css/style.css HTTP/1.1" 200 8820 dimitrisalaudmabileau.fr "http://dimitrisalaudmabileau.fr/" "Mozilla/5.0 (Macintosh; Intel Mac OS X 10_9_3) AppleWebKit/537.75.14 (KHTML, like Gecko) Version/7.0.3 Safari/7046A194A" "-"
212.227.221.0 - - [29/May/2018:23:47:53 +0200] "GET /js/js.js HTTP/1.1" 200 3480 dimitrisalaudmabileau.fr "http://dimitrisalaudmabileau.fr/" "Mozilla/5.0 (Macintosh; Intel Mac OS X 10_9_3) AppleWebKit/537.75.14 (KHTML, like Gecko) Version/7.0.3 Safari/7046A194A" "-"
212.227.221.0 - - [29/May/2018:23:47:53 +0200] "GET /css/normalize.css HTTP/1.1" 200 8006 dimitrisalaudmabileau.fr "http://dimitrisalaudmabileau.fr/" "Mozilla/5.0 (Macintosh; Intel Mac OS X 10_9_3) AppleWebKit/537.75.14 (KHTML, like Gecko) Version/7.0.3 Safari/7046A194A" "-"
212.227.221.0 - - [29/May/2018:23:47:53 +0200] "GET /images/loader.gif HTTP/1.1" 200 135996 dimitrisalaudmabileau.fr "http://dimitrisalaudmabileau.fr/" "Mozilla/5.0 (Macintosh; Intel Mac OS X 10_9_3) AppleWebKit/537.75.14 (KHTML, like Gecko) Version/7.0.3 Safari/7046A194A" "-"
212.227.221.0 - - [29/May/2018:23:47:53 +0200] "GET /images/cvlogo.png HTTP/1.1" 200 3206 dimitrisalaudmabileau.fr "http://dimitrisalaudmabileau.fr/" "Mozilla/5.0 (Macintosh; Intel Mac OS X 10_9_3) AppleWebKit/537.75.14 (KHTML, like Gecko) Version/7.0.3 Safari/7046A194A" "-"
212.227.221.0 - - [29/May/2018:23:47:54 +0200] "GET /images/icotwitter.png HTTP/1.1" 200 3449 dimitrisalaudmabileau.fr "http://dimitrisalaudmabileau.fr/" "Mozilla/5.0 (Macintosh; Intel Mac OS X 10_9_3) AppleWebKit/537.75.14 (KHTML, like Gecko) Version/7.0.3 Safari/7046A194A" "-"
212.227.221.0 - - [29/May/2018:23:47:54 +0200] "GET /images/icotrash.png HTTP/1.1" 200 2748 dimitrisalaudmabileau.fr "http://dimitrisalaudmabileau.fr/" "Mozilla/5.0 (Macintosh; Intel Mac OS X 10_9_3) AppleWebKit/537.75.14 (KHTML, like Gecko) Version/7.0.3 Safari/7046A194A" "-"
212.227.221.0 - - [29/May/2018:23:47:54 +0200] "GET /images/icoblocnote.png HTTP/1.1" 200 7688 dimitrisalaudmabileau.fr "http://dimitrisalaudmabileau.fr/" "Mozilla/5.0 (Macintosh; Intel Mac OS X 10_9_3) AppleWebKit/537.75.14 (KHTML, like Gecko) Version/7.0.3 Safari/7046A194A" "-"
212.227.221.0 - - [29/May/2018:23:47:54 +0200] "GET /images/android/logoappli.png HTTP/1.1" 200 20230 dimitrisalaudmabileau.fr "http://dimitrisalaudmabileau.fr/" "Mozilla/5.0 (Macintosh; Intel Mac OS X 10_9_3) AppleWebKit/537.75.14 (KHTML, like Gecko) Version/7.0.3 Safari/7046A194A" "-"
212.227.221.0 - - [29/May/2018:23:47:54 +0200] "GET /images/icolink.png HTTP/1.1" 200 1870 dimitrisalaudmabileau.fr "http://dimitrisalaudmabileau.fr/" "Mozilla/5.0 (Macintosh; Intel Mac OS X 10_9_3) AppleWebKit/537.75.14 (KHTML, like Gecko) Version/7.0.3 Safari/7046A194A" "-"
212.227.221.0 - - [29/May/2018:23:47:54 +0200] "GET /font/Tw%20Cen%20MT%20Condensed.ttf HTTP/1.1" 200 66804 dimitrisalaudmabileau.fr "http://dimitrisalaudmabileau.fr/css/style.css" "Mozilla/5.0 (Macintosh; Intel Mac OS X 10_9_3) AppleWebKit/537.75.14 (KHTML, like Gecko) Version/7.0.3 Safari/7046A194A" "-"
212.227.221.0 - - [29/May/2018:23:47:54 +0200] "GET /font/Brush%20Script%20MT.ttf HTTP/1.1" 200 45728 dimitrisalaudmabileau.fr "http://dimitrisalaudmabileau.fr/css/style.css" "Mozilla/5.0 (Macintosh; Intel Mac OS X 10_9_3) AppleWebKit/537.75.14 (KHTML, like Gecko) Version/7.0.3 Safari/7046A194A" "-"
212.227.221.0 - - [29/May/2018:23:47:54 +0200] "GET /images/fenetrebar.png HTTP/1.1" 200 1023 dimitrisalaudmabileau.fr "http://dimitrisalaudmabileau.fr/" "Mozilla/5.0 (Macintosh; Intel Mac OS X 10_9_3) AppleWebKit/537.75.14 (KHTML, like Gecko) Version/7.0.3 Safari/7046A194A" "-"
212.227.221.0 - - [29/May/2018:23:47:54 +0200] "GET /images/b_fenetrebar.png HTTP/1.1" 200 1023 dimitrisalaudmabileau.fr "http://dimitrisalaudmabileau.fr/" "Mozilla/5.0 (Macintosh; Intel Mac OS X 10_9_3) AppleWebKit/537.75.14 (KHTML, like Gecko) Version/7.0.3 Safari/7046A194A" "-"
212.227.221.0 - - [29/May/2018:23:47:54 +0200] "GET /images/logoimie.png HTTP/1.1" 200 25710 dimitrisalaudmabileau.fr "http://dimitrisalaudmabileau.fr/" "Mozilla/5.0 (Macintosh; Intel Mac OS X 10_9_3) AppleWebKit/537.75.14 (KHTML, like Gecko) Version/7.0.3 Safari/7046A194A" "-"
212.227.221.0 - - [29/May/2018:23:47:54 +0200] "GET /images/bgdsm.png HTTP/1.1" 200 1817277 dimitrisalaudmabileau.fr "http://dimitrisalaudmabileau.fr/css/style.css" "Mozilla/5.0 (Macintosh; Intel Mac OS X 10_9_3) AppleWebKit/537.75.14 (KHTML, like Gecko) Version/7.0.3 Safari/7046A194A" "-"
212.227.221.0 - - [29/May/2018:23:47:54 +0200] "GET /images/fondciel.jpg.png HTTP/1.1" 200 845236 dimitrisalaudmabileau.fr "http://dimitrisalaudmabileau.fr/css/style.css" "Mozilla/5.0 (Macintosh; Intel Mac OS X 10_9_3) AppleWebKit/537.75.14 (KHTML, like Gecko) Version/7.0.3 Safari/7046A194A" "-"
212.227.221.0 - - [29/May/2018:23:47:54 +0200] "GET /images/fen.png HTTP/1.1" 200 6366 dimitrisalaudmabileau.fr "http://dimitrisalaudmabileau.fr/" "Mozilla/5.0 (Macintosh; Intel Mac OS X 10_9_3) AppleWebKit/537.75.14 (KHTML, like Gecko) Version/7.0.3 Safari/7046A194A" "-"
212.227.221.0 - - [29/May/2018:23:47:54 +0200] "GET /images/fenandroid.png HTTP/1.1" 404 823 dimitrisalaudmabileau.fr "http://dimitrisalaudmabileau.fr/" "Mozilla/5.0 (Macintosh; Intel Mac OS X 10_9_3) AppleWebKit/537.75.14 (KHTML, like Gecko) Version/7.0.3 Safari/7046A194A" "-"
212.227.221.0 - - [29/May/2018:23:47:54 +0200] "GET /images/logomaison.jpg HTTP/1.1" 200 15652 dimitrisalaudmabileau.fr "http://dimitrisalaudmabileau.fr/" "Mozilla/5.0 (Macintosh; Intel Mac OS X 10_9_3) AppleWebKit/537.75.14 (KHTML, like Gecko) Version/7.0.3 Safari/7046A194A" "-"
212.227.221.0 - - [29/May/2018:23:47:54 +0200] "GET /images/logomail.jpg HTTP/1.1" 200 30090 dimitrisalaudmabileau.fr "http://dimitrisalaudmabileau.fr/" "Mozilla/5.0 (Macintosh; Intel Mac OS X 10_9_3) AppleWebKit/537.75.14 (KHTML, like Gecko) Version/7.0.3 Safari/7046A194A" "-"
212.227.221.0 - - [29/May/2018:23:47:54 +0200] "GET /images/competence.png HTTP/1.1" 200 56220 dimitrisalaudmabileau.fr "http://dimitrisalaudmabileau.fr/" "Mozilla/5.0 (Macintosh; Intel Mac OS X 10_9_3) AppleWebKit/537.75.14 (KHTML, like Gecko) Version/7.0.3 Safari/7046A194A" "-"
212.227.221.0 - - [29/May/2018:23:47:54 +0200] "GET /images/fondblocnote.png HTTP/1.1" 200 1040420 dimitrisalaudmabileau.fr "http://dimitrisalaudmabileau.fr/" "Mozilla/5.0 (Macintosh; Intel Mac OS X 10_9_3) AppleWebKit/537.75.14 (KHTML, like Gecko) Version/7.0.3 Safari/7046A194A" "-"
212.227.221.0 - - [29/May/2018:23:47:54 +0200] "GET /images/barre_t.png HTTP/1.1" 200 11086 dimitrisalaudmabileau.fr "http://dimitrisalaudmabileau.fr/" "Mozilla/5.0 (Macintosh; Intel Mac OS X 10_9_3) AppleWebKit/537.75.14 (KHTML, like Gecko) Version/7.0.3 Safari/7046A194A" "-"
212.227.221.0 - - [29/May/2018:23:47:54 +0200] "GET /images/fenetrebar_t.png HTTP/1.1" 200 1415 dimitrisalaudmabileau.fr "http://dimitrisalaudmabileau.fr/" "Mozilla/5.0 (Macintosh; Intel Mac OS X 10_9_3) AppleWebKit/537.75.14 (KHTML, like Gecko) Version/7.0.3 Safari/7046A194A" "-"
212.227.221.0 - - [29/May/2018:23:47:54 +0200] "GET /images/android/bgandroid.jpg HTTP/1.1" 200 325944 dimitrisalaudmabileau.fr "http://dimitrisalaudmabileau.fr/css/style.css" "Mozilla/5.0 (Macintosh; Intel Mac OS X 10_9_3) AppleWebKit/537.75.14 (KHTML, like Gecko) Version/7.0.3 Safari/7046A194A" "-"
